{
  "extends": [
    "tslint:recommended"
  ],
  "jsRules": {},
  "rules": {
    "eofline": true,
    "quotemark": [true, "single", "backtick"],
    "interface-name": false,
    "no-console": [
      true,
      "log",
      "table",
      "dir",
      "debug",
      "info"
    ],
    "only-arrow-functions": false,
    "variable-name": [
      true,
      "allow-leading-underscore"
    ]
  },
  "rulesDirectory": []
}
